120.39.17.26
120.39.18.29
120.39.18.30
120.39.19.34
120.39.19.35
120.39.19.36
120.39.19.38
120.39.20.37
120.39.20.38
120.39.20.39
120.39.21.46
120.39.21.47
120.39.22.61
120.39.22.62
120.39.22.63
120.39.22.64
120.39.22.65
120.39.23.35
120.39.23.48
120.39.23.49
120.39.23.62
