﻿;Tag Type, Tag Name, Tag Description, Read Only, Data Source, Security Code, Alarmed, Native Type, Value Type, Min Analog, Max Analog, Initial Analog, Scale, Offset, DeadBand, Units, Off Label Digital, On Label Digital, Initial Digital, Length String, Initial String, Retentive, Address, System Source Name, System Source Index, RIO Address, Element Size Block, Number Elements Block, Initial Block
;###002 - THIS LINE CONTAINS VERSION INFORMATION. DO NOT REMOVE!!!

;Folders Section (Must define folders before tags)

;Tag Section
"A","cmd_page",,"F","D","*","F","U","L",0,65535,0,1,0,0,,,,,,,,"::[PVRIO]cmd_page"
"A","lista_erro",,"F","D","*","F","U","L",0,65535,0,1,0,0,,,,,,,,"::[PVRIO]lista_erro"
"D","qur02_cancela","CANCELA DADOS ESCRITOD PARA AVI","F","D","*","F",,,,,,,,,,"0","1","0",,,,"::[PVRIO]qur02_cancela"
"D","qur02_cancela1","CANCELA DADOS ESCRITOD PARA AVI","F","D","*","F",,,,,,,,,,"0","1","0",,,,"::[PVRIO]qur02_cancela1"
"D","qur02_confirma","CONFIRMA DADOS ESCRITOS PARA AVI","F","D","*","F",,,,,,,,,,"0","1","0",,,,"::[PVRIO]qur02_confirma"
"D","qur02_confirma1","CONFIRMA DADOS ESCRITOS PARA AVI","F","D","*","F",,,,,,,,,,"0","1","0",,,,"::[PVRIO]qur02_confirma1"
"D","qur02_handshake_cor","HANDSHAKE BIT AFTER CHANGE","F","D","*","F",,,,,,,,,,"0","1","0",,,,"::[PVRIO]qur02_handshake_cor"
"D","qur02_handshake_mod","HANDSHAKE BIT AFTER CHANGE","F","D","*","F",,,,,,,,,,"0","1","0",,,,"::[PVRIO]qur02_handshake_mod"
"D","qur02_handshake_pvi1",,"F","D","*","F",,,,,,,,,,"0","1","0",,,,"::[PVRIO]qur02_handshake_pvi1"
"D","qur02_handshake_pvi2","HANDSHAKE BIT AFTER CHANGE","F","D","*","F",,,,,,,,,,"0","1","0",,,,"::[PVRIO]qur02_handshake_pvi2"
"D","qur02_notific_cor","NOTIFICATION BIT AFTER CHANGE","F","D","*","F",,,,,,,,,,"0","1","0",,,,"::[PVRIO]qur02_notific_cor"
"D","qur02_notific_mod","NOTIFICATION BIT AFTER CHANGE","F","D","*","F",,,,,,,,,,"0","1","0",,,,"::[PVRIO]qur02_notific_mod"
"D","qur02_notific_pvi1","NOTIFICATION BIT AFTER CHANGE","F","D","*","F",,,,,,,,,,"0","1","0",,,,"::[PVRIO]qur02_notific_pvi1"
"D","qur02_notific_pvi2","NOTIFICATION BIT AFTER CHANGE","F","D","*","F",,,,,,,,,,"0","1","0",,,,"::[PVRIO]qur02_notific_pvi2"
"A","qur02_rcod1","CODIGO 1 - Q07-0071","F","D","*","F","4","L",0,9999,0,1,0,0,,,,,,,,"::[PVRIO]qur02_rcod1"
"A","qur02_rcod2","CODIGO 2 - Q07-0071","F","D","*","F","4","L",0,9999,0,1,0,0,,,,,,,,"::[PVRIO]qur02_rcod2"
"A","qur02_rcor","COR - Q07-00""71,""","F","D","*","F","4","L",0,9999,0,1,0,0,,,,,,,,"::[PVRIO]qur02_rcor"
"A","qur02_rerro1","MENSAGENS DE ERRO UR-02","F","D","*","F","U","L",0,99,0,1,0,0,,,,,,,,"::[PVRIO]qur02_rerro1"
"A","qur02_rmes","MESNSAGENS DE IDENTIFICAM","F","D","*","F","U","L",0,99,0,1,0,0,,,,,,,,"::[PVRIO]qur02_rmes"
"A","qur02_rmod","MODELO - Q07-0071","F","D","*","F","4","L",0,9999,0,1,0,0,,,,,,,,"::[PVRIO]qur02_rmod"
"A","qur02_rnskid","NUMERO DO SKID - Q07-0071","F","D","*","F","4","L",1,400,0,1,0,0,,,,,,,,"::[PVRIO]qur02_rnskid"
"A","qur02_rnskid2","NUMERO DO SKID - Q07-0071","F","D","*","F","4","L",900,980,0,1,0,0,,,,,,,,"::[PVRIO]qur02_rnskid2"
"A","qur02_rnskid3","NUMERO DO SKID - Q07-0071","F","D","*","F","4","L",1001,1400,0,1,0,0,,,,,,,,"::[PVRIO]qur02_rnskid3"
"A","qur02_wcod1","CODIGO 1 - Q07-0071","F","D","*","F","4","L",0,9999,0,1,0,0,,,,,,,,"::[PVRIO]qur02_wcod1"
"A","qur02_wcod2","CODIGO 2 - Q07-0071","F","D","*","F","4","L",0,9999,0,1,0,0,,,,,,,,"::[PVRIO]qur02_wcod2"
"A","qur02_wcor","COR - Q07-0071","F","D","*","F","4","L",0,9999,5901,1,0,0,,,,,,,,"::[PVRIO]qur02_wcor"
"A","qur02_wmod","MODELO - Q07-0071","F","D","*","F","4","L",0,9999,548,1,0,0,,,,,,,,"::[PVRIO]qur02_wmod"
"A","qur02_wnskid","NUMERO DO SKID - Q07-0071","F","D","*","F","4","L",1,400,391,1,0,0,,,,,,,,"::[PVRIO]qur02_wnskid"
"A","qur02_wnskid2","NUMERO DO SKID - Q07-0071","F","D","*","F","4","L",900,980,391,1,0,0,,,,,,,,"::[PVRIO]qur02_wnskid2"
"A","qur02_wnskid3","NUMERO DO SKID - Q07-0071","F","D","*","F","4","L",1001,1400,391,1,0,0,,,,,,,,"::[PVRIO]qur02_wnskid3"
"D","qur03_cancela","CANCELA DADOS ESCRITOD PARA AVI","F","D","*","F",,,,,,,,,,"0","1","0",,,,"::[PVRIO]qur03_cancela"
"D","qur03_cancela1","CANCELA DADOS ESCRITOD PARA AVI","F","D","*","F",,,,,,,,,,"0","1","0",,,,"::[PVRIO]qur03_cancela1"
"D","qur03_confirma","CONFIRMA DADOS ESCRITOS PARA AVI","F","D","*","F",,,,,,,,,,"0","1","0",,,,"::[PVRIO]qur03_confirma"
"D","qur03_confirma1","CONFIRMA DADOS ESCRITOS PARA AVI","F","D","*","F",,,,,,,,,,"0","1","0",,,,"::[PVRIO]qur03_confirma1"
"D","qur03_handshake_cor","HANDSHAKE BIT AFTER CHANGE","F","D","*","F",,,,,,,,,,"0","1","0",,,,"::[PVRIO]qur03_handshake_cor"
"D","qur03_handshake_mod","HANDSHAKE BIT AFTER CHANGE","F","D","*","F",,,,,,,,,,"0","1","0",,,,"::[PVRIO]qur03_handshake_mod"
"D","qur03_handshake_pvi1","HANDSHAKE BIT AFTER CHANGE","F","D","*","F",,,,,,,,,,"0","1","0",,,,"::[PVRIO]qur03_handshake_pvi1"
"D","qur03_handshake_pvi2","HANDSHAKE BIT AFTER CHANGE","F","D","*","F",,,,,,,,,,"0","1","0",,,,"::[PVRIO]qur03_handshake_pvi2"
"D","qur03_notific_cor","NOTIFICATION BIT AFTER CHANGE","F","D","*","F",,,,,,,,,,"0","1","0",,,,"::[PVRIO]qur03_notific_cor"
"D","qur03_notific_mod","NOTIFICATION BIT AFTER CHANGE","F","D","*","F",,,,,,,,,,"0","1","0",,,,"::[PVRIO]qur03_notific_mod"
"D","qur03_notific_pvi1","NOTIFICATION BIT AFTER CHANGE","F","D","*","F",,,,,,,,,,"0","1","0",,,,"::[PVRIO]qur03_notific_pvi1"
"D","qur03_notific_pvi2","NOTIFICATION BIT AFTER CHANGE","F","D","*","F",,,,,,,,,,"0","1","0",,,,"::[PVRIO]qur03_notific_pvi2"
"A","qur03_rcod1","CODIGO 1 - Q07-0072","F","D","*","F","4","L",0,9999,0,1,0,0,,,,,,,,"::[PVRIO]qur03_rcod1"
"A","qur03_rcod2","CODIGO 2 - Q07-0072","F","D","*","F","4","L",0,9999,0,1,0,0,,,,,,,,"::[PVRIO]qur03_rcod2"
"A","qur03_rcor","COR - Q07-0072","F","D","*","F","4","L",0,9999,0,1,0,0,,,,,,,,"::[PVRIO]qur03_rcor"
"A","qur03_rerro1","ERRO COMUNICAÇÃO ENTRE AVI E PLC","F","D","*","F","U","L",0,99,0,1,0,0,,,,,,,,"::[PVRIO]qur03_rerro1"
"A","qur03_rmes","MENSAGENS DE IDENTIFICAM","F","D","*","F","U","L",0,99,0,1,0,0,,,,,,,,"::[PVRIO]qur03_rmes"
"A","qur03_rmod","MODELO - Q07-0072","F","D","*","F","4","L",0,9999,0,1,0,0,,,,,,,,"::[PVRIO]qur03_rmod"
"A","qur03_rnskid","NUMERO DO SKID - Q07-0072","F","D","*","F","4","L",1,400,0,1,0,0,,,,,,,,"::[PVRIO]qur03_rnskid"
"A","qur03_rnskid2","NUMERO DO SKID - Q07-0072","F","D","*","F","4","L",900,980,0,1,0,0,,,,,,,,"::[PVRIO]qur03_rnskid2"
"A","qur03_rnskid3","NUMERO DO SKID - Q07-0072","F","D","*","F","4","L",1001,1400,0,1,0,0,,,,,,,,"::[PVRIO]qur03_rnskid3"
"A","qur03_wcod1","CODIGO 1 - Q07-0072","F","D","*","F","4","L",0,9999,0,1,0,0,,,,,,,,"::[PVRIO]qur03_wcod1"
"A","qur03_wcod2","CODIGO 2 - Q07-0072","F","D","*","F","4","L",0,9999,0,1,0,0,,,,,,,,"::[PVRIO]qur03_wcod2"
"A","qur03_wcor","COR - Q07-0072","F","D","*","F","4","L",0,9999,4802,1,0,0,,,,,,,,"::[PVRIO]qur03_wcor"
"A","qur03_wmod","MODELO - Q07-0072","F","D","*","F","4","L",0,9999,548,1,0,0,,,,,,,,"::[PVRIO]qur03_wmod"
"A","qur03_wnskid","NUMERO DO SKID - Q07-0072","F","D","*","F","4","L",1,400,390,1,0,0,,,,,,,,"::[PVRIO]qur03_wnskid"
"A","qur03_wnskid2","NUMERO DO SKID - Q07-0072","F","D","*","F","4","L",900,980,390,1,0,0,,,,,,,,"::[PVRIO]qur03_wnskid2"
"A","qur03_wnskid3","NUMERO DO SKID - Q07-0072","F","D","*","F","4","L",1001,1400,390,1,0,0,,,,,,,,"::[PVRIO]qur03_wnskid3"
"A","qur2_rbyp","-UR-02- STORAGE/BYPASS","F","D","*","F","D","F",0,1,0,1,0,0,,,,,,,,"::[PVRIO]qur2_rbyp"
"A","qur3_rbyp","-UR-03- STORAGE/BYPASS","F","D","*","F","D","F",0,1,0,1,0,0,,,,,,,,"::[PVRIO]qur3_rbyp"
"A","sts_page",,"F","D","*","F","U","L",0,65535,0,1,0,0,,,,,,,,"::[PVRIO]sts_page"
