﻿;Tag Type, Tag Name, Tag Description, Read Only, Data Source, Security Code, Alarmed, Native Type, Value Type, Min Analog, Max Analog, Initial Analog, Scale, Offset, DeadBand, Units, Off Label Digital, On Label Digital, Initial Digital, Length String, Initial String, Retentive, Address, System Source Name, System Source Index, RIO Address, Element Size Block, Number Elements Block, Initial Block
;###002 - THIS LINE CONTAINS VERSION INFORMATION. DO NOT REMOVE!!!

;Folders Section (Must define folders before tags)

;Tag Section
A,"cmd_page",,"F","D","*","F","U","L",0,65535,0,1,0,0,,,,,,,,"::[PLC_S2]N21[74]"
A,"lista_erro",,"F","D","*","F","U","L",0,65535,0,1,0,0,,,,,,,,"::[PLC_S2]n21[123]"
A,"sts_page",,"F","D","*","F","U","L",0,65535,0,1,0,0,,,,,,,,"::[PLC_S2]N20[74]"
D,"sur10_cancelaskid",,"F","D","*","F",,,,,,,,,,"0","1","0",,,,"::[PLC_S2]N20[79].0"
D,"sur10_confirmaskid",,"F","D","*","F",,,,,,,,,,"0","1","0",,,,"::[PLC_S2]N20[79].1"
A,"sur10_ralarm1","MENSAGENS DE ALARM S10-3010-","F","D","*","F","U","L",0,99,0,1,0,0,,,,,,,,"::[PLC_S2]N21[86]"
A,"sur10_rerro1","MENSAGENS DE ERRO S10-3010-","F","D","*","F","U","L",0,99,0,1,0,0,,,,,,,,"::[PLC_S2]N21[125]"
A,"sur10_rmes","MENSAGENS DE IDENTIFICAM","F","D","*","F","U","L",0,99,0,1,0,0,,,,,,,,"::[PLC_S2]N21[127]"
A,"sur10_rnskid","NUMERO DO SKID - S10-3010-","F","D","*","F","4","L",571,899,0,1,0,0,,,,,,,,"::[PLC_S2]N21[80]"
A,"sur10_rnskid2","NUMERO DO SKID - S10-3010-","F","D","*","F","4","L",1571,1626,0,1,0,0,,,,,,,,"::[PLC_S2]N21[80]"
A,"sur10_wnskid","NUMERO DO SKID - S10-3010-","F","D","*","F","4","L",571,899,0,1,0,0,,,,,,,,"::[PLC_S2]N20[80]"
A,"sur10_wnskid2","NUMERO DO SKID - S10-3010-","F","D","*","F","4","L",1571,1626,0,1,0,0,,,,,,,,"::[PLC_S2]N20[80]"
D,"sur9_cancela1",,"F","D","*","F",,,,,,,,,,"0","1","0",,,,"::[PLC_S2]N20[64].2"
D,"sur9_cancelaskid",,"F","D","*","F",,,,,,,,,,"0","1","0",,,,"::[PLC_S2]N20[64].0"
D,"sur9_confirma1",,"F","D","*","F",,,,,,,,,,"0","1","0",,,,"::[PLC_S2]N20[64].3"
D,"sur9_confirmaskid",,"F","D","*","F",,,,,,,,,,"0","1","0",,,,"::[PLC_S2]N20[64].1"
D,"sur9_hand_cod1",,"F","D","*","F",,,,,,,,,,"0","1","0",,,,"::[PLC_S2]N21[64].7"
D,"sur9_hand_cod2",,"F","D","*","F",,,,,,,,,,"0","1","0",,,,"::[PLC_S2]N21[64].8"
D,"sur9_hand_cor",,"F","D","*","F",,,,,,,,,,"0","1","0",,,,"::[PLC_S2]N21[64].10"
D,"sur9_hand_mod",,"F","D","*","F",,,,,,,,,,"0","1","0",,,,"::[PLC_S2]N21[64].9"
D,"sur9_notific_cod1",,"F","D","*","F",,,,,,,,,,"0","1","0",,,,"::[PLC_S2]N20[64].7"
D,"sur9_notific_cod2",,"F","D","*","F",,,,,,,,,,"0","1","0",,,,"::[PLC_S2]N20[64].8"
D,"sur9_notific_cor",,"F","D","*","F",,,,,,,,,,"0","1","0",,,,"::[PLC_S2]N20[64].10"
D,"sur9_notific_mod",,"F","D","*","F",,,,,,,,,,"0","1","0",,,,"::[PLC_S2]N20[64].9"
A,"sur9_rcod1","CODIGO 1 - G10-2100-","F","D","*","F","4","L",0,9999,0,1,0,0,,,,,,,,"::[PLC_S2]N21[66]"
A,"sur9_rcod2","CODIGO 2 - G10-2100-","F","D","*","F","4","L",0,9999,0,1,0,0,,,,,,,,"::[PLC_S2]N21[67]"
A,"sur9_rcor","COR - G10-2100-","F","D","*","F","4","L",0,9999,0,1,0,0,,,,,,,,"::[PLC_S2]N21[69]"
A,"sur9_rerro1","MENSAGENS DE ERRO G10-2100-","F","D","*","F","U","L",0,99,0,1,0,0,,,,,,,,"::[PLC_S2]N21[124]"
A,"sur9_rmes","MENSAGENS DE IDENTIFICAM","F","D","*","F","U","L",0,99,0,1,0,0,,,,,,,,"::[PLC_S2]N21[126]"
A,"sur9_rmod","MODELO - G10-2100-","F","D","*","F","4","L",0,9999,0,1,0,0,,,,,,,,"::[PLC_S2]N21[68]"
A,"sur9_rnskid","NUMERO DO SKID - G10-2100-","F","D","*","F","4","L",551,570,0,1,0,0,,,,,,,,"::[PLC_S2]N21[65]"
A,"sur9_wcod1","CODIGO 1 - G10-2100-","F","D","*","F","4","L",0,9999,0,1,0,0,,,,,,,,"::[PLC_S2]N20[66]"
A,"sur9_wcod2","CODIGO 2 - G10-2100-","F","D","*","F","4","L",0,9999,0,1,0,0,,,,,,,,"::[PLC_S2]N20[67]"
A,"sur9_wcor","COR - G10-2100-","F","D","*","F","4","L",0,9999,7852,1,0,0,,,,,,,,"::[PLC_S2]N20[69]"
A,"sur9_wmod","MODELO - G10-2100-","F","D","*","F","4","L",0,9999,1169,1,0,0,,,,,,,,"::[PLC_S2]N20[68]"
A,"sur9_wnskid","NUMERO DO SKID - G10-2100-","F","D","*","F","4","L",551,570,555,1,0,0,,,,,,,,"::[PLC_S2]N20[65]"

