5      STRING 1000,200
7     M=1
10     PUSH 10
11     CALL 5
12     PUSH 10
13     CALL 4
15     REM contador
190   CNT=CNT+1
200    IF CNT>5000 THEN CNT=0
1005   PUSH CNT :  PUSH 1 :  CALL 21
1110   IF M<>0 THEN  PRINT CNT,
1120   GOTO 15
2000   END